{
  "Name":"Armar6 Lab",
  "LengthUnit":"mm",
  "Map":
  [
    {
      "Name":"Bottom Left Corner Extension To Make Points outside of map visible",
      "Position":[-3650, -200],
      "RelativeLineStrip":[
        [1, 1]
      ]
    },

    {
      "Name":"WallTowardsKindergarden",
      "Position":[6130, 0],
      "RelativeLineStrip":[
        [0, 12200]
      ]
    },

    {
      "Name":"Wall Towards H2T",
      "Position":[-3450, 12250],
      "RelativeLineStrip":[
        [9600, 0]
      ]
    },

    {
      "Name":"Wall Towards Cargo Lift",
      "Position":[-3450, 0],
      "RelativeLineStrip":[
        [0, 12200]
      ]
    },

    
    {
      "Name":"Wall Towards Heid Und Neu Strasse",
      "Position":[6130, 0],
      "RelativeLineStrip":[
        [-1300,0],
        [0,-70],
        [-1700, 0],
        [0,70],

        [-1300,0],
        [0,-70],
        [-1700, 0],
        [0,70],

        [-1300,0],
        [0,-70],
        [-1700, 0],
        [0,70],

        [-580,0],
	
	
        [760,0],
        [0,90],


        [6000,0]
      ]
    },
    {
      "Name":"Col further from h2t",
      "Position":[-470, 3900],
      "RelativeLineStrip":[
        [0, 420],
        [420, 0],
        [0, -420],
        [-420, 0]
      ]
    },
    {
      "Name":"Col closer at h2t",
      "Position":[-470, 8020],
      "RelativeLineStrip":[
        [0, 420],
        [420, 0],
        [0, -420],
        [-420, 0]
      ]
    },


    {
      "Name":"Kitchen",
      "Position":[-3450, 2500],
      "RelativeLineStrip":[
        [640, 0],
        [0, 1790],
        [0, 650],
	[-640, 0]
      ]
    },

    {
      "Name":"Workbench Left Leg",
      "Position":[3335, 4490],
      "RelativeLineStrip":[
        [0, 510]
      ]
    },
    {
      "Name":"Workbench Right Leg",
      "Position":[4985, 4490],
      "RelativeLineStrip":[
        [0, 510]
      ]
    },
    {
      "Name":"Workbench Back Cover",
      "Position":[3355, 4910],
      "RelativeLineStrip":[
        [1640, 0]
      ]
    },
    {
      "Name":"BarAtWorkbench",
      "Position":[4525, 5000],
      "RelativeLineStrip":[
        [0, 3000]
      ]
    },

        {
          "Name":"ControlTable",
          "Position":[6130, 2060],
          "RelativeLineStrip":[
            [-3000, 0]
          ]
        },

      {
          "Name":"GuradRightSide",
          "Position":[3255, 2060],
          "RelativeLineStrip":[
            [0, 690]
          ]
        },

        {
          "Name":"Banners",
          "Position":[2150, 600],
          "RelativeLineStrip":[
            [-3400, 200]
          ]
        },

 {
          "Name":"ROBDEKONDirtyBox",
          "Position":[1600, 8550],
          "RelativeLineStrip":[
            [1300, 0]
          ]
        },

        {
          "Name":"ROBDEKONCleanBox",
          "Position":[4260, 6520],
          "RelativeLineStrip":[
            [0, 1300]
          ]
        }



  ]
}
