{
  "Name":"Armar6 Lab",
  "LengthUnit":"mm",
  "Map":
  [
    {
      "Name":"OuterWalls",
      "Position":[0, 0],
      "RelativeLineStrip":[
	[6130,0],
        [0,12500],
	[-6130,0]
      ]
    },
    {
      "Name":"Col1",
      "Position":[-570, 3800],
      "RelativeLineStrip":[
        [0, 420],
        [420, 0],
        [0, -420],
        [-420, 0]
      ]
    },
    {
      "Name":"Col2",
      "Position":[-590, 7900],
      "RelativeLineStrip":[
        [0, 420],
        [420, 0],
        [0, -420],
        [-420, 0]
      ]
    },
    {
      "Name":"TableLeftLeg",
      "Position":[3335, 4490],
      "RelativeLineStrip":[
        [0, 510]
      ]
    },
    {
      "Name":"TableRightLeg",
      "Position":[4985, 4490],
      "RelativeLineStrip":[
        [0, 510]
      ]
    },
    {
      "Name":"TableBackCover",
      "Position":[3355, 4910],
      "RelativeLineStrip":[
        [1640, 0]
      ]
    },
    {
      "Name":"ControlTable",
      "Position":[6130, 2060],
      "RelativeLineStrip":[
        [-3000, 0]
      ]
    }
  ]
}
