Training Modus
./trainingdata/
guard_support0.pickle
guardsupport
guard_support1.pickle
guardsupport
guard_support2.pickle
guardsupport
guard_support3.pickle
guardsupport
idling0.pickle
idleMotion
idling1.pickle
idleMotion
idling2.pickle
idleMotion
idling3.pickle
idleMotion
request_object0.pickle
requestobject
request_object1.pickle
requestobject
request_object2.pickle
requestobject
request_object3.pickle
requestobject
request_object4.pickle
requestobject
request_object5.pickle
requestobject
request_object6.pickle
requestobject
Loaded 4899 pose samples
request_object7.pickle
requestobject
0.9879567258624209
0.44376899696048633
requestobject <-> idleMotion
requestobject <-> idleMotion
requestobject <-> idleMotion
requestobject <-> idleMotion
requestobject <-> idleMotion
requestobject <-> idleMotion
requestobject <-> idleMotion
requestobject <-> idleMotion
requestobject <-> idleMotion
requestobject <-> idleMotion
requestobject <-> idleMotion
requestobject <-> idleMotion
requestobject <-> idleMotion
requestobject <-> idleMotion
requestobject <-> idleMotion
requestobject <-> idleMotion
requestobject <-> idleMotion
requestobject <-> idleMotion
requestobject <-> idleMotion
requestobject <-> idleMotion
requestobject <-> idleMotion
requestobject <-> idleMotion
requestobject <-> idleMotion
requestobject <-> idleMotion
requestobject <-> idleMotion
requestobject <-> idleMotion
requestobject <-> idleMotion
requestobject <-> idleMotion
requestobject <-> idleMotion
requestobject <-> idleMotion
requestobject <-> idleMotion
requestobject <-> idleMotion
requestobject <-> idleMotion
requestobject <-> idleMotion
requestobject <-> idleMotion
requestobject <-> idleMotion
requestobject <-> idleMotion
requestobject <-> idleMotion
requestobject <-> idleMotion
requestobject <-> idleMotion
requestobject <-> idleMotion
requestobject <-> idleMotion
requestobject <-> idleMotion
requestobject <-> idleMotion
requestobject <-> idleMotion
requestobject <-> idleMotion
requestobject <-> idleMotion
requestobject <-> idleMotion
requestobject <-> idleMotion
requestobject <-> idleMotion
requestobject <-> idleMotion
requestobject <-> idleMotion
requestobject <-> idleMotion
requestobject <-> idleMotion
requestobject <-> idleMotion
requestobject <-> idleMotion
requestobject <-> idleMotion
requestobject <-> idleMotion
requestobject <-> idleMotion
requestobject <-> idleMotion
requestobject <-> idleMotion
requestobject <-> idleMotion
requestobject <-> idleMotion
requestobject <-> idleMotion
requestobject <-> idleMotion
requestobject <-> idleMotion
requestobject <-> idleMotion
requestobject <-> idleMotion
requestobject <-> idleMotion
requestobject <-> idleMotion
requestobject <-> idleMotion
requestobject <-> idleMotion
requestobject <-> idleMotion
requestobject <-> idleMotion
requestobject <-> idleMotion
requestobject <-> idleMotion
requestobject <-> idleMotion
requestobject <-> idleMotion
requestobject <-> idleMotion
requestobject <-> idleMotion
requestobject <-> idleMotion
requestobject <-> idleMotion
requestobject <-> idleMotion
requestobject <-> idleMotion
requestobject <-> idleMotion
requestobject <-> idleMotion
requestobject <-> idleMotion
requestobject <-> idleMotion
requestobject <-> idleMotion
requestobject <-> idleMotion
requestobject <-> idleMotion
requestobject <-> idleMotion
requestobject <-> idleMotion
requestobject <-> idleMotion
requestobject <-> idleMotion
requestobject <-> idleMotion
requestobject <-> idleMotion
requestobject <-> idleMotion
requestobject <-> idleMotion
requestobject <-> idleMotion
requestobject <-> idleMotion
requestobject <-> idleMotion
requestobject <-> idleMotion
requestobject <-> idleMotion
requestobject <-> idleMotion
requestobject <-> idleMotion
requestobject <-> idleMotion
requestobject <-> idleMotion
requestobject <-> idleMotion
requestobject <-> idleMotion
requestobject <-> idleMotion
requestobject <-> idleMotion
requestobject <-> idleMotion
requestobject <-> idleMotion
requestobject <-> idleMotion
requestobject <-> idleMotion
requestobject <-> idleMotion
requestobject <-> idleMotion
requestobject <-> idleMotion
requestobject <-> idleMotion
requestobject <-> idleMotion
requestobject <-> idleMotion
requestobject <-> idleMotion
requestobject <-> idleMotion
requestobject <-> idleMotion
requestobject <-> idleMotion
requestobject <-> idleMotion
requestobject <-> idleMotion
requestobject <-> idleMotion
requestobject <-> idleMotion
requestobject <-> idleMotion
requestobject <-> idleMotion
requestobject <-> idleMotion
requestobject <-> idleMotion
requestobject <-> idleMotion
requestobject <-> idleMotion
requestobject <-> idleMotion
requestobject <-> idleMotion
requestobject <-> idleMotion
requestobject <-> idleMotion
requestobject <-> idleMotion
requestobject <-> idleMotion
requestobject <-> idleMotion
requestobject <-> idleMotion
requestobject <-> idleMotion
requestobject <-> idleMotion
requestobject <-> idleMotion
requestobject <-> idleMotion
requestobject <-> idleMotion
requestobject <-> idleMotion
requestobject <-> idleMotion
requestobject <-> idleMotion
requestobject <-> idleMotion
requestobject <-> idleMotion
requestobject <-> idleMotion
requestobject <-> idleMotion
requestobject <-> idleMotion
requestobject <-> idleMotion
requestobject <-> idleMotion
requestobject <-> idleMotion
requestobject <-> idleMotion
requestobject <-> idleMotion
requestobject <-> idleMotion
requestobject <-> idleMotion
requestobject <-> idleMotion
requestobject <-> idleMotion
requestobject <-> idleMotion
requestobject <-> idleMotion
requestobject <-> idleMotion
requestobject <-> idleMotion
requestobject <-> idleMotion
requestobject <-> idleMotion
requestobject <-> idleMotion
requestobject <-> idleMotion
requestobject <-> idleMotion
requestobject <-> idleMotion
requestobject <-> idleMotion
requestobject <-> idleMotion
requestobject <-> idleMotion
requestobject <-> idleMotion
requestobject <-> idleMotion
requestobject <-> guardsupport
requestobject <-> guardsupport
44.376899696
Finished Training
